%YAML 1.1
%TAG !u! tag:unity3d.com,2011:
--- !u!1045 &1
EditorBuildSettings:
  m_ObjectHideFlags: 0
  serializedVersion: 2
  m_Scenes:
  - enabled: 1
    path: Assets/Scenes/MainMenu.unity
    guid: 2cda990e2423bbf4892e6590ba056729
  - enabled: 1
    path: Assets/Scenes/Level_1.unity
    guid: b92f02a079de3094cbb93d81c21789e3
  - enabled: 1
    path: Assets/Scenes/Level_2.unity
    guid: c669a84c49a30e94bb58edbd8c66f462
  - enabled: 1
    path: Assets/Scenes/Level_3.unity
    guid: e7a555e3b0e84364f80ac1df7a121c4d
  - enabled: 1
    path: Assets/Scenes/DeadScene.unity
    guid: 43daf4c898e6ef940a8ef6da9f33a5c8
  m_configObjects: {}
